{
    "KPlugin": {
        "Description": "This plugin provides a default Grantlee mail header.",
        "Description[ar]": "توفّر هذه الملحقة ترويسة بريد «غرانتلي» مبدئيّة.",
        "Description[ca@valencia]": "Aquest connector proporciona una capçalera «Grantlee» predeterminada de correu.",
        "Description[ca]": "Aquest connector proporciona una capçalera «Grantlee» predeterminada de correu.",
        "Description[cs]": "Tento modul poskytuje výchozí hlavičku e-mailu Grantlee.",
        "Description[da]": "Dette plugin leverer en standard Grantlee-mail-header.",
        "Description[de]": "Mit diesem Modul können Sie ein Vorspann-Design „Standard-Grantlee“ definieren",
        "Description[en_GB]": "This plugin provides a default Grantlee mail header.",
        "Description[es]": "Este complemento proporciona un encabezado de correo predeterminado Grantlee.",
        "Description[et]": "See plugin pakub Grantlee vaikimisi kirjapäist.",
        "Description[fi]": "Tämä liitännäinen mahdollistaa oletusarvoisen Grantlee-viestiotsakkeen.",
        "Description[fr]": "Ce module complémentaire fournit un style d'en-tête Grantlee par défaut.",
        "Description[gl]": "Este complemento fornece unha cabeceira de correo predeterminada de Grantlee.",
        "Description[hu]": "Ez a bővítmény biztosítja az alapértelmezett Grantlee levélfejlécet.",
        "Description[ia]": "Iste plugin forni un capiute de posta Grantlee predefinite.",
        "Description[it]": "Questa estensione fornisce un'intestazione predefinita per la posta basata su Grantlee.",
        "Description[ko]": "이 플러그인은 기본 Grantlee 메일 헤더를 제공합니다.",
        "Description[nl]": "Deze plug-in biedt een standaard Grantlee e-mailkop.",
        "Description[pl]": "Ta wtyczka dostarcza domyślny nagłówek pocztowy Grantlee.",
        "Description[pt]": "Este 'plugin' permite-lhe definir um cabeçalho por omissão do Grantlee.",
        "Description[pt_BR]": "Este plugin permite-lhe definir um cabeçalho padrão do Grantlee.",
        "Description[ru]": "Этот модуль определяет стиль заголовка Grantlee.",
        "Description[sk]": "Tento plugin poskytuje predvolenú hlavičku mailu Grantlee.",
        "Description[sl]": "Ta vstavek ponuja privzete glave sporočil Grantlee.",
        "Description[sr@ijekavian]": "Овај прикључак пружа подразумевано Грантлијево заглавље порука",
        "Description[sr@ijekavianlatin]": "Ovaj priključak pruža podrazumevano Grantleejevo zaglavlje poruka",
        "Description[sr@latin]": "Ovaj priključak pruža podrazumevano Grantleejevo zaglavlje poruka",
        "Description[sr]": "Овај прикључак пружа подразумевано Грантлијево заглавље порука",
        "Description[sv]": "Insticksprogrammet tillhandahåller ett Grantlee-standardbrevhuvud.",
        "Description[tr]": "Bu eklenti, varsayılan bir Grantlee posta başlığı sağlar.",
        "Description[uk]": "Цей додаток визначає типовий заголовок повідомлення Grantlee.",
        "Description[x-test]": "xxThis plugin provides a default Grantlee mail header.xx",
        "Description[zh_CN]": "此插件提供默认 Grantlee 邮件头。",
        "Description[zh_TW]": "這個附加元件提供了預設的 Grantlee 郵件標頭",
        "EnabledByDefault": "true",
        "Name": "Default Grantlee Header Style",
        "Name[ar]": "نمط ترويسات «غرانتلي» المبدئيّ",
        "Name[ca@valencia]": "Estil de capçalera «Grantlee» predeterminada",
        "Name[ca]": "Estil de capçalera «Grantlee» predeterminada",
        "Name[cs]": "Výchozí styl hlavičky Grantlee",
        "Name[da]": "Standard Grantlee header-stil",
        "Name[de]": "Vorspann-Design „Standard-Grantlee“",
        "Name[en_GB]": "Default Grantlee Header Style",
        "Name[es]": "Estilo de encabezado predeterminado Grantlee",
        "Name[et]": "Grantlee vaikimisi päisestiil",
        "Name[fi]": "Oletusarvoinen Grantlee-otsaketyyli",
        "Name[fr]": "Style d'en-tête pour Grantlee par défaut",
        "Name[gl]": "Estilo de cabeceira predeterminado de Grantlee",
        "Name[hu]": "Alapértelmezett Grantlee fejlécstílus",
        "Name[ia]": "Stilo de capite Grantlee predefinite",
        "Name[it]": "Stile con intestazioni di Grantlee predefinito",
        "Name[ko]": "기본 Grantlee 헤더 스타일",
        "Name[nl]": "Stijl met standaard Grantlee header",
        "Name[pl]": "Wygląd domyślnego nagłówka Grantlee",
        "Name[pt]": "Estilo de Cabeçalhos Predefinido do Grantlee",
        "Name[pt_BR]": "Estilo padrão de cabeçalho Grantlee",
        "Name[ru]": "Стандартный стиль заголовков Grantlee",
        "Name[sk]": "Predvolený štýl hlavičiek Grantlee",
        "Name[sl]": "Privzet slog z glavami Grantlee",
        "Name[sr@ijekavian]": "Подразумевани Грантлијев стил заглавља",
        "Name[sr@ijekavianlatin]": "Podrazumevani Grantleejev stil zaglavlja",
        "Name[sr@latin]": "Podrazumevani Grantleejev stil zaglavlja",
        "Name[sr]": "Подразумевани Грантлијев стил заглавља",
        "Name[sv]": "Normal Grantlee-huvudstil",
        "Name[tr]": "Varsayılan Grantlee Başlık Biçimi",
        "Name[uk]": "Типовий стиль заголовків Grantlee",
        "Name[x-test]": "xxDefault Grantlee Header Stylexx",
        "Name[zh_CN]": "默认 Grantlee 头样式",
        "Name[zh_TW]": "預設 Grantlee 標頭檔案樣式",
        "Version": "1.0"
    },
    "X-KDE-MessageViewer-Header-Order": "100"
}
